Lab4
…
view(report_09_12_2020)

Exercise 1

report_03_12_2020 %>% 
  group_by(`Country/Region`) %>% 
  summarise(sum(`Confirmed`))

## `summarise()` ungrouping output (override with `.groups` argument)

## # A tibble: 118 x 2
##    `Country/Region` `sum(Confirmed)`
##    <chr>                       <dbl>
##  1 Afghanistan                     7
##  2 Albania                        23
##  3 Algeria                        24
##  4 Andorra                         1
##  5 Argentina                      19
##  6 Armenia                         4
##  7 Australia                     128
##  8 Austria                       302
##  9 Azerbaijan                     11
## 10 Bahrain                       195
## #  with 108 more rows

report_09_12_2020 %>% 
  group_by(`Country_Region`) %>% 
  summarise(sum(`Confirmed`))

## `summarise()` ungrouping output (override with `.groups` argument)

## # A tibble: 188 x 2
##    Country_Region      `sum(Confirmed)`
##    <chr>                          <dbl>
##  1 Afghanistan                    38641
##  2 Albania                        11185
##  3 Algeria                        48007
##  4 Andorra                         1344
##  5 Angola                          3335
##  6 Antigua and Barbuda               95
##  7 Argentina                     546481
##  8 Armenia                        45675
##  9 Australia                      26651
## 10 Austria                        32696
## #  with 178 more rows

report_03_12_2020 %>% 
  group_by(`Country/Region`,`Province/State`) %>% 
  summarise(sum(`Confirmed`)) %>% 
  filter(`Country/Region`=='US')

## `summarise()` regrouping output by 'Country/Region' (override with `.groups` argument)

## # A tibble: 52 x 3
## # Groups:   Country/Region [1]
##    `Country/Region` `Province/State`     `sum(Confirmed)`
##    <chr>            <chr>                           <dbl>
##  1 US               Alaska                              0
##  2 US               Arizona                             9
##  3 US               Arkansas                            6
##  4 US               California                        221
##  5 US               Colorado                           45
##  6 US               Connecticut                         5
##  7 US               Delaware                            1
##  8 US               Diamond Princess                   46
##  9 US               District of Columbia               10
## 10 US               Florida                            35
## #  with 42 more rows

report_09_12_2020 %>% 
  group_by(`Country_Region`,`Province_State`) %>% 
  summarise(sum(`Confirmed`)) %>% 
  filter(`Country_Region`=='US')

## `summarise()` regrouping output by 'Country_Region' (override with `.groups` argument)

## # A tibble: 58 x 3
## # Groups:   Country_Region [1]
##    Country_Region Province_State       `sum(Confirmed)`
##    <chr>          <chr>                           <dbl>
##  1 US             Alabama                        137646
##  2 US             Alaska                           6207
##  3 US             Arizona                        208128
##  4 US             Arkansas                        69710
##  5 US             California                     758933
##  6 US             Colorado                        60876
##  7 US             Connecticut                     54326
##  8 US             Delaware                        18726
##  9 US             Diamond Princess                   49
## 10 US             District of Columbia            14493
## #  with 48 more rows
…
